COVID_finals
…
Now the minimum number of cases in any row is one.

Check to ensure the Max in each of the cases and deaths columns is not a typographical error.

global %>% filter(cases > 80000000)

## # A tibble: 41 x 5
##    Province_State Country_Region date          cases deaths
##    <chr>          <chr>          <date>        <dbl>  <dbl>
##  1 <NA>           US             2022-03-28 80001882 978314
##  2 <NA>           US             2022-03-29 80026060 979295
##  3 <NA>           US             2022-03-30 80065243 980471
##  4 <NA>           US             2022-03-31 80110880 980989
##  5 <NA>           US             2022-04-01 80143098 981819
##  6 <NA>           US             2022-04-02 80154908 981975
##  7 <NA>           US             2022-04-03 80159665 982032
##  8 <NA>           US             2022-04-04 80188578 982619
##  9 <NA>           US             2022-04-05 80214179 983134
## 10 <NA>           US             2022-04-06 80255129 984260
## # ... with 31 more rows
…
Look at the column names for the US data set again

colnames(us)

## [1] "Admin2"         "Province_State" "Country_Region" "Combined_Key"  
## [5] "date"           "cases"          "Population"     "deaths"

filter the data for WA state and look at the data set

us_WA <- us %>% 
  filter(Province_State == 'Washington')

head(us_WA, 100)

## # A tibble: 100 x 8
##    Admin2 Province_State Country_Region Combined_Key date       cases Population
##    <chr>  <chr>          <chr>          <chr>        <date>     <dbl>      <dbl>
##  1 Adams  Washington     US             Adams, Wash~ 2020-01-22     0      19983
##  2 Adams  Washington     US             Adams, Wash~ 2020-01-23     0      19983
##  3 Adams  Washington     US             Adams, Wash~ 2020-01-24     0      19983
##  4 Adams  Washington     US             Adams, Wash~ 2020-01-25     0      19983
##  5 Adams  Washington     US             Adams, Wash~ 2020-01-26     0      19983
##  6 Adams  Washington     US             Adams, Wash~ 2020-01-27     0      19983
##  7 Adams  Washington     US             Adams, Wash~ 2020-01-28     0      19983
##  8 Adams  Washington     US             Adams, Wash~ 2020-01-29     0      19983
##  9 Adams  Washington     US             Adams, Wash~ 2020-01-30     0      19983
## 10 Adams  Washington     US             Adams, Wash~ 2020-01-31     0      19983
## # ... with 90 more rows, and 1 more variable: deaths <dbl>
…
Transform data to a new table which summarizes the deaths, cases, cases_per_thou, and deaths_per_thou in each state. arrange the rows in ascending number of deaths in each state.

us_state_totals <- us_by_state %>%
  group_by(Province_State) %>%
  summarize(deaths = max(deaths), cases = max(cases),
            population = max(Population),
            cases_per_thou = 1000 * cases / population,
            deaths_per_thou = 1000 * deaths / population) %>%
  filter(cases > 0, population > 0) %>%
  arrange(deaths)

us_state_totals

## # A tibble: 56 x 6
##    Province_State        deaths  cases population cases_per_thou deaths_per_thou
##    <chr>                  <dbl>  <dbl>      <dbl>          <dbl>           <dbl>
##  1 American Samoa            28   5923      55641           106.           0.503
##  2 Northern Mariana Isl~     34  11281      55144           205.           0.617
##  3 Virgin Islands           113  17167     107268           160.           1.05 
##  4 Guam                     355  48323     164229           294.           2.16 
##  5 Vermont                  642 126099     623989           202.           1.03 
##  6 Alaska                  1253 254466     740995           343.           1.69 
##  7 District of Columbia    1340 141943     705749           201.           1.90 
##  8 Hawaii                  1428 252654    1415872           178.           1.01 
##  9 Wyoming                 1814 156745     578759           271.           3.13 
## 10 North Dakota            2268 241739     762062           317.           2.98 
## # ... with 46 more rows
…
us_state_totals

## # A tibble: 56 x 6
##    Province_State        deaths  cases population cases_per_thou deaths_per_thou
##    <chr>                  <dbl>  <dbl>      <dbl>          <dbl>           <dbl>
##  1 American Samoa            28   5923      55641           106.           0.503
##  2 Northern Mariana Isl~     34  11281      55144           205.           0.617
##  3 Virgin Islands           113  17167     107268           160.           1.05 
##  4 Guam                     355  48323     164229           294.           2.16 
##  5 Vermont                  642 126099     623989           202.           1.03 
##  6 Alaska                  1253 254466     740995           343.           1.69 
##  7 District of Columbia    1340 141943     705749           201.           1.90 
##  8 Hawaii                  1428 252654    1415872           178.           1.01 
##  9 Wyoming                 1814 156745     578759           271.           3.13 
## 10 North Dakota            2268 241739     762062           317.           2.98 
## # ... with 46 more rows
…
Add this vector as a column to us_state_totals.

# arrange the tibble in alphaberical order (bases on Province_State) to match the order in the pop_density vector
us_state_totals <- us_state_totals %>%
  arrange(Province_State)

# add the new column of pop_density to the tibble
us_state_totals$Pop_Density <- pop_density

# print out the new tibble and check that the correct values in the Pop_Density column have been associated with each state
us_state_totals %>%
  select(Province_State, Pop_Density, everything())

## # A tibble: 56 x 7
##    Province_State       Pop_Density deaths   cases population cases_per_thou
##    <chr>                      <dbl>  <dbl>   <dbl>      <dbl>          <dbl>
##  1 Alabama                     38.3  19601 1302397    4903185           266.
##  2 Alaska                       0.5   1253  254466     740995           343.
##  3 American Samoa             251       28    5923      55641           106.
##  4 Arizona                     24.3  30189 2025435    7278717           278.
##  5 Arkansas                    22.3  11407  837030    3017804           277.
##  6 California                  98    90497 9288293   39512223           235.
##  7 Colorado                    21.5  12487 1389827    5758736           241.
##  8 Connecticut                288    10874  766172    3565287           215.
##  9 Delaware                   196     2928  264376     973764           271.
## 10 District of Columbia      4361     1340  141943     705749           201.
## # ... with 46 more rows, and 1 more variable: deaths_per_thou <dbl>
…
